Tidy Tuesday 2021 - Week 35
…
data_raw %>% 
  distinct(sire_taxon) %>%
  nrow()

## [1] 27

# What are the taxon combinations of the parents?
data_raw %>%
  distinct(dlc_id, hybrid, dam_taxon, sire_taxon) %>% 
  filter(hybrid=="Sp") %>% 
  count(dam_taxon, sire_taxon) %>% 
  arrange(desc(n))

## # A tibble: 28 x 3
##    dam_taxon sire_taxon     n
##    <chr>     <chr>      <int>
##  1 EUL       <NA>          32
##  2 EUL       EUL           27
##  3 EUL       EFUL          19
##  4 EUL       EALB          16
##  5 VAR       VRUB          14
##  6 VRUB      <NA>           8
##  7 EALB      EUL            7
##  8 ESAN      <NA>           6
##  9 ESAN      EUL            5
## 10 EFUL      ERUF           4
## # ... with 18 more rows
…
net_final %>% 
  activate(edges) %>% 
  as_tibble()

## # A tibble: 28 x 3
##     from    to     n
##    <int> <int> <int>
##  1     1    11    32
##  2     1     1    27
##  3     1     6    19
##  4     1     4    16
##  5     2     3    14
##  6     3    11     8
##  7     1     4     7
##  8     5    11     6
##  9     1     5     5
## 10     6     7     4
## # ... with 18 more rows
…
